C:\Users\Marharyta_Khramtsova\workspace\javalab.task1\src\main\java\com\epam\lab\marharytakhramtsova\javalab\task1\daoimpl\TagDAOImpl.java
C:\Users\Marharyta_Khramtsova\workspace\javalab.task1\src\main\java\com\epam\lab\marharytakhramtsova\javalab\task1\dto\News.java
C:\Users\Marharyta_Khramtsova\workspace\javalab.task1\src\main\java\com\epam\lab\marharytakhramtsova\javalab\task1\dao\AuthorDAO.java
C:\Users\Marharyta_Khramtsova\workspace\javalab.task1\src\main\java\com\epam\lab\marharytakhramtsova\javalab\task1\dao\TagDAO.java
C:\Users\Marharyta_Khramtsova\workspace\javalab.task1\src\main\java\com\epam\lab\marharytakhramtsova\javalab\task1\dto\Tag.java
C:\Users\Marharyta_Khramtsova\workspace\javalab.task1\src\main\java\com\epam\lab\marharytakhramtsova\javalab\task1\dao\CommentDAO.java
C:\Users\Marharyta_Khramtsova\workspace\javalab.task1\src\main\java\com\epam\lab\marharytakhramtsova\javalab\task1\dto\Comment.java
C:\Users\Marharyta_Khramtsova\workspace\javalab.task1\src\main\java\com\epam\lab\marharytakhramtsova\javalab\task1\App.java
C:\Users\Marharyta_Khramtsova\workspace\javalab.task1\src\main\java\com\epam\lab\marharytakhramtsova\javalab\task1\dto\Author.java
C:\Users\Marharyta_Khramtsova\workspace\javalab.task1\src\main\java\com\epam\lab\marharytakhramtsova\javalab\task1\dao\NewsDAO.java
